{
	"name": "python-livereload",
	"maintainer": "hcartiaux",
	"dependencies": [
		"python-setuptools",
		"python-six",
		"python-tornado",
		"python2-setuptools",
		"python2-six",
		"python2-tornado"
	]
}